mc23_13p6TeV.538106.MGPy8EG_NNPDF23LO_X251tohh_WWbb_2lep.deriv.DAOD_PHYSLITE.e8548_a910_r14932_p6266
mc23_13p6TeV.538107.MGPy8EG_NNPDF23LO_X260tohh_WWbb_2lep.deriv.DAOD_PHYSLITE.e8548_a910_r14932_p6266
mc23_13p6TeV.538108.MGPy8EG_NNPDF23LO_X300tohh_WWbb_2lep.deriv.DAOD_PHYSLITE.e8548_a910_r14932_p6266
mc23_13p6TeV.538109.MGPy8EG_NNPDF23LO_X400tohh_WWbb_2lep.deriv.DAOD_PHYSLITE.e8548_a910_r14932_p6266
mc23_13p6TeV.538110.MGPy8EG_NNPDF23LO_X500tohh_WWbb_2lep.deriv.DAOD_PHYSLITE.e8548_a910_r14932_p6266
mc23_13p6TeV.538111.MGPy8EG_NNPDF23LO_X600tohh_WWbb_2lep.deriv.DAOD_PHYSLITE.e8548_a910_r14932_p6266
mc23_13p6TeV.538112.MGPy8EG_NNPDF23LO_X800tohh_WWbb_2lep.deriv.DAOD_PHYSLITE.e8548_a910_r14932_p6266
mc23_13p6TeV.538113.MGPy8EG_NNPDF23LO_X1000tohh_WWbb_2lep.deriv.DAOD_PHYSLITE.e8548_a910_r14932_p6266
mc23_13p6TeV.538114.MGPy8EG_NNPDF23LO_X251tohh_ttbb_2lep.deriv.DAOD_PHYSLITE.e8548_a910_r14932_p6266
mc23_13p6TeV.538115.MGPy8EG_NNPDF23LO_X260tohh_ttbb_2lep.deriv.DAOD_PHYSLITE.e8548_a910_r14932_p6266
mc23_13p6TeV.538116.MGPy8EG_NNPDF23LO_X300tohh_ttbb_2lep.deriv.DAOD_PHYSLITE.e8548_a910_r14932_p6266
mc23_13p6TeV.538117.MGPy8EG_NNPDF23LO_X400tohh_ttbb_2lep.deriv.DAOD_PHYSLITE.e8548_a910_r14932_p6266
mc23_13p6TeV.538118.MGPy8EG_NNPDF23LO_X500tohh_ttbb_2lep.deriv.DAOD_PHYSLITE.e8548_a910_r14932_p6266
mc23_13p6TeV.538119.MGPy8EG_NNPDF23LO_X600tohh_ttbb_2lep.deriv.DAOD_PHYSLITE.e8548_a910_r14932_p6266
mc23_13p6TeV.538120.MGPy8EG_NNPDF23LO_X800tohh_ttbb_2lep.deriv.DAOD_PHYSLITE.e8548_a910_r14932_p6266
mc23_13p6TeV.538121.MGPy8EG_NNPDF23LO_X1000tohh_ttbb_2lep.deriv.DAOD_PHYSLITE.e8548_a910_r14932_p6266
mc23_13p6TeV.538122.MGPy8EG_NNPDF23LO_X251tohh_ZZbb_2lep.deriv.DAOD_PHYSLITE.e8548_a910_r14932_p6266
mc23_13p6TeV.538123.MGPy8EG_NNPDF23LO_X260tohh_ZZbb_2lep.deriv.DAOD_PHYSLITE.e8548_a910_r14932_p6266
mc23_13p6TeV.538124.MGPy8EG_NNPDF23LO_X300tohh_ZZbb_2lep.deriv.DAOD_PHYSLITE.e8548_a910_r14932_p6266
mc23_13p6TeV.538125.MGPy8EG_NNPDF23LO_X400tohh_ZZbb_2lep.deriv.DAOD_PHYSLITE.e8548_a910_r14932_p6266
mc23_13p6TeV.538126.MGPy8EG_NNPDF23LO_X500tohh_ZZbb_2lep.deriv.DAOD_PHYSLITE.e8548_a910_r14932_p6266
mc23_13p6TeV.538127.MGPy8EG_NNPDF23LO_X600tohh_ZZbb_2lep.deriv.DAOD_PHYSLITE.e8548_a910_r14932_p6266
mc23_13p6TeV.538128.MGPy8EG_NNPDF23LO_X800tohh_ZZbb_2lep.deriv.DAOD_PHYSLITE.e8548_a910_r14932_p6266
mc23_13p6TeV.538129.MGPy8EG_NNPDF23LO_X1000tohh_ZZbb_2lep.deriv.DAOD_PHYSLITE.e8548_a910_r14932_p6266
mc23_13p6TeV.538106.MGPy8EG_NNPDF23LO_X251tohh_WWbb_2lep.deriv.DAOD_PHYSLITE.e8548_a911_r15224_p6266
mc23_13p6TeV.538107.MGPy8EG_NNPDF23LO_X260tohh_WWbb_2lep.deriv.DAOD_PHYSLITE.e8548_a911_r15224_p6266
mc23_13p6TeV.538108.MGPy8EG_NNPDF23LO_X300tohh_WWbb_2lep.deriv.DAOD_PHYSLITE.e8548_a911_r15224_p6266
mc23_13p6TeV.538109.MGPy8EG_NNPDF23LO_X400tohh_WWbb_2lep.deriv.DAOD_PHYSLITE.e8548_a911_r15224_p6266
mc23_13p6TeV.538110.MGPy8EG_NNPDF23LO_X500tohh_WWbb_2lep.deriv.DAOD_PHYSLITE.e8548_a911_r15224_p6266
mc23_13p6TeV.538111.MGPy8EG_NNPDF23LO_X600tohh_WWbb_2lep.deriv.DAOD_PHYSLITE.e8548_a911_r15224_p6266
mc23_13p6TeV.538112.MGPy8EG_NNPDF23LO_X800tohh_WWbb_2lep.deriv.DAOD_PHYSLITE.e8548_a911_r15224_p6266
mc23_13p6TeV.538113.MGPy8EG_NNPDF23LO_X1000tohh_WWbb_2lep.deriv.DAOD_PHYSLITE.e8548_a911_r15224_p6266
mc23_13p6TeV.538114.MGPy8EG_NNPDF23LO_X251tohh_ttbb_2lep.deriv.DAOD_PHYSLITE.e8548_a911_r15224_p6266
mc23_13p6TeV.538115.MGPy8EG_NNPDF23LO_X260tohh_ttbb_2lep.deriv.DAOD_PHYSLITE.e8548_a911_r15224_p6266
mc23_13p6TeV.538116.MGPy8EG_NNPDF23LO_X300tohh_ttbb_2lep.deriv.DAOD_PHYSLITE.e8548_a911_r15224_p6266
mc23_13p6TeV.538117.MGPy8EG_NNPDF23LO_X400tohh_ttbb_2lep.deriv.DAOD_PHYSLITE.e8548_a911_r15224_p6266
mc23_13p6TeV.538118.MGPy8EG_NNPDF23LO_X500tohh_ttbb_2lep.deriv.DAOD_PHYSLITE.e8548_a911_r15224_p6266
mc23_13p6TeV.538119.MGPy8EG_NNPDF23LO_X600tohh_ttbb_2lep.deriv.DAOD_PHYSLITE.e8548_a911_r15224_p6266
mc23_13p6TeV.538120.MGPy8EG_NNPDF23LO_X800tohh_ttbb_2lep.deriv.DAOD_PHYSLITE.e8548_a911_r15224_p6266
mc23_13p6TeV.538121.MGPy8EG_NNPDF23LO_X1000tohh_ttbb_2lep.deriv.DAOD_PHYSLITE.e8548_a911_r15224_p6266
mc23_13p6TeV.538122.MGPy8EG_NNPDF23LO_X251tohh_ZZbb_2lep.deriv.DAOD_PHYSLITE.e8548_a911_r15224_p6266
mc23_13p6TeV.538123.MGPy8EG_NNPDF23LO_X260tohh_ZZbb_2lep.deriv.DAOD_PHYSLITE.e8548_a911_r15224_p6266
mc23_13p6TeV.538124.MGPy8EG_NNPDF23LO_X300tohh_ZZbb_2lep.deriv.DAOD_PHYSLITE.e8548_a911_r15224_p6266
mc23_13p6TeV.538125.MGPy8EG_NNPDF23LO_X400tohh_ZZbb_2lep.deriv.DAOD_PHYSLITE.e8548_a911_r15224_p6266
mc23_13p6TeV.538126.MGPy8EG_NNPDF23LO_X500tohh_ZZbb_2lep.deriv.DAOD_PHYSLITE.e8548_a911_r15224_p6266
mc23_13p6TeV.538127.MGPy8EG_NNPDF23LO_X600tohh_ZZbb_2lep.deriv.DAOD_PHYSLITE.e8548_a911_r15224_p6266
mc23_13p6TeV.538128.MGPy8EG_NNPDF23LO_X800tohh_ZZbb_2lep.deriv.DAOD_PHYSLITE.e8548_a911_r15224_p6266
mc23_13p6TeV.538129.MGPy8EG_NNPDF23LO_X1000tohh_ZZbb_2lep.deriv.DAOD_PHYSLITE.e8548_a911_r15224_p6266

