mc23_13p6TeV.523072.MGPy8EG_A14NNPDF23LO_ttHH_semilep.deriv.DAOD_PHYSLITE.e8549_a911_r14908_p6266
mc23_13p6TeV.523072.MGPy8EG_A14NNPDF23LO_ttHH_semilep.deriv.DAOD_PHYSLITE.e8549_a910_r14932_p6266

mc23_13p6TeV.523073.MGPy8EG_A14NNPDF23LO_ttHH_dilep.deriv.DAOD_PHYSLITE.e8549_a911_r14908_p6266
mc23_13p6TeV.523073.MGPy8EG_A14NNPDF23LO_ttHH_dilep.deriv.DAOD_PHYSLITE.e8549_a910_r14932_p6266

mc23_13p6TeV.523074.MGPy8EG_A14NNPDF23LO_ttHH_fullhad.deriv.DAOD_PHYSLITE.e8549_a911_r14908_p6266
mc23_13p6TeV.523074.MGPy8EG_A14NNPDF23LO_ttHH_fullhad.deriv.DAOD_PHYSLITE.e8549_a910_r14932_p6266

mc23_13p6TeV.525963.MGPy8EG_A14NNPDF23LO_ttHH_orth4b_SSML.deriv.DAOD_PHYSLITE.e8558_a910_r14932_p6026
mc23_13p6TeV.525963.MGPy8EG_A14NNPDF23LO_ttHH_orth4b_SSML.deriv.DAOD_PHYSLITE.e8558_a911_r15224_p6026
