mc20_13TeV.508781.MGPy8EG_ttyy_nonallhad_LO.deriv.DAOD_PHYSLITE.e8448_s3681_r13167_p6266
mc20_13TeV.508781.MGPy8EG_ttyy_nonallhad_LO.deriv.DAOD_PHYSLITE.e8448_s3681_r13144_p6266
mc20_13TeV.508781.MGPy8EG_ttyy_nonallhad_LO.deriv.DAOD_PHYSLITE.e8448_s3681_r13145_p6266
