mc20_13TeV.701000.Sh_2214_lllljj.deriv.DAOD_PHYS.e8547_s3797_r13144_p6266
mc20_13TeV.701000.Sh_2214_lllljj.deriv.DAOD_PHYS.e8547_s3797_r13145_p6266
mc20_13TeV.701000.Sh_2214_lllljj.deriv.DAOD_PHYS.e8547_s3797_r13167_p6266

mc20_13TeV.701005.Sh_2214_lllvjj.deriv.DAOD_PHYS.e8547_s3797_r13144_p6266
mc20_13TeV.701005.Sh_2214_lllvjj.deriv.DAOD_PHYS.e8547_s3797_r13145_p6266
mc20_13TeV.701005.Sh_2214_lllvjj.deriv.DAOD_PHYS.e8547_s3797_r13167_p6266

mc20_13TeV.701010.Sh_2214_llvvjj_os.deriv.DAOD_PHYS.e8547_s3797_r13144_p6266
mc20_13TeV.701010.Sh_2214_llvvjj_os.deriv.DAOD_PHYS.e8547_s3797_r13145_p6266
mc20_13TeV.701010.Sh_2214_llvvjj_os.deriv.DAOD_PHYS.e8547_s3797_r13167_p6266

mc20_13TeV.701015.Sh_2214_llvvjj_ss.deriv.DAOD_PHYS.e8547_s3797_r13144_p6266
mc20_13TeV.701015.Sh_2214_llvvjj_ss.deriv.DAOD_PHYS.e8547_s3797_r13145_p6266
mc20_13TeV.701015.Sh_2214_llvvjj_ss.deriv.DAOD_PHYS.e8547_s3797_r13167_p6266

mc20_13TeV.701040.Sh_2214_llll.deriv.DAOD_PHYS.e8547_s3797_r13144_p6266
mc20_13TeV.701040.Sh_2214_llll.deriv.DAOD_PHYS.e8547_s3797_r13145_p6266
mc20_13TeV.701040.Sh_2214_llll.deriv.DAOD_PHYS.e8547_s3797_r13167_p6266

mc20_13TeV.701045.Sh_2214_lllv.deriv.DAOD_PHYS.e8547_s3797_r13144_p6266
mc20_13TeV.701045.Sh_2214_lllv.deriv.DAOD_PHYS.e8547_s3797_r13145_p6266
mc20_13TeV.701045.Sh_2214_lllv.deriv.DAOD_PHYS.e8547_s3797_r13167_p6266

mc20_13TeV.701050.Sh_2214_llvv_os.deriv.DAOD_PHYS.e8547_s3797_r13144_p6266
mc20_13TeV.701050.Sh_2214_llvv_os.deriv.DAOD_PHYS.e8547_s3797_r13145_p6266
mc20_13TeV.701050.Sh_2214_llvv_os.deriv.DAOD_PHYS.e8547_s3797_r13167_p6266

mc20_13TeV.701055.Sh_2214_llvv_ss.deriv.DAOD_PHYS.e8547_s3797_r13144_p6266
mc20_13TeV.701055.Sh_2214_llvv_ss.deriv.DAOD_PHYS.e8547_s3797_r13145_p6266
mc20_13TeV.701055.Sh_2214_llvv_ss.deriv.DAOD_PHYS.e8547_s3797_r13167_p6266

mc20_13TeV.701060.Sh_2214_lvvv.deriv.DAOD_PHYS.e8547_s3797_r13144_p6266
mc20_13TeV.701060.Sh_2214_lvvv.deriv.DAOD_PHYS.e8547_s3797_r13145_p6266
mc20_13TeV.701060.Sh_2214_lvvv.deriv.DAOD_PHYS.e8547_s3797_r13167_p6266

mc20_13TeV.701085.Sh_2214_ZqqZll.deriv.DAOD_PHYS.e8547_s3797_r13144_p6266
mc20_13TeV.701085.Sh_2214_ZqqZll.deriv.DAOD_PHYS.e8547_s3797_r13145_p6266
mc20_13TeV.701085.Sh_2214_ZqqZll.deriv.DAOD_PHYS.e8547_s3797_r13167_p6266

mc20_13TeV.701090.Sh_2214_ZbbZll.deriv.DAOD_PHYS.e8547_s3797_r13144_p6266
mc20_13TeV.701090.Sh_2214_ZbbZll.deriv.DAOD_PHYS.e8547_s3797_r13145_p6266
mc20_13TeV.701090.Sh_2214_ZbbZll.deriv.DAOD_PHYS.e8547_s3797_r13167_p6266

mc20_13TeV.701095.Sh_2214_ZqqZvv.deriv.DAOD_PHYS.e8547_s3797_r13144_p6266
mc20_13TeV.701095.Sh_2214_ZqqZvv.deriv.DAOD_PHYS.e8547_s3797_r13145_p6266
mc20_13TeV.701095.Sh_2214_ZqqZvv.deriv.DAOD_PHYS.e8547_s3797_r13167_p6266

mc20_13TeV.701100.Sh_2214_ZbbZvv.deriv.DAOD_PHYS.e8547_s3797_r13144_p6266
mc20_13TeV.701100.Sh_2214_ZbbZvv.deriv.DAOD_PHYS.e8547_s3797_r13145_p6266
mc20_13TeV.701100.Sh_2214_ZbbZvv.deriv.DAOD_PHYS.e8547_s3797_r13167_p6266

mc20_13TeV.701105.Sh_2214_WqqZll.deriv.DAOD_PHYS.e8547_s3797_r13144_p6266
mc20_13TeV.701105.Sh_2214_WqqZll.deriv.DAOD_PHYS.e8547_s3797_r13145_p6266
mc20_13TeV.701105.Sh_2214_WqqZll.deriv.DAOD_PHYS.e8547_s3797_r13167_p6266

mc20_13TeV.701110.Sh_2214_WqqZvv.deriv.DAOD_PHYS.e8547_s3797_r13144_p6266
mc20_13TeV.701110.Sh_2214_WqqZvv.deriv.DAOD_PHYS.e8547_s3797_r13145_p6266
mc20_13TeV.701110.Sh_2214_WqqZvv.deriv.DAOD_PHYS.e8547_s3797_r13167_p6266

mc20_13TeV.701115.Sh_2214_WlvZqq.deriv.DAOD_PHYS.e8547_s3797_r13144_p6266
mc20_13TeV.701115.Sh_2214_WlvZqq.deriv.DAOD_PHYS.e8547_s3797_r13145_p6266
mc20_13TeV.701115.Sh_2214_WlvZqq.deriv.DAOD_PHYS.e8547_s3797_r13167_p6266

mc20_13TeV.701120.Sh_2214_WlvZbb.deriv.DAOD_PHYS.e8547_s3797_r13144_p6266
mc20_13TeV.701120.Sh_2214_WlvZbb.deriv.DAOD_PHYS.e8547_s3797_r13145_p6266
mc20_13TeV.701120.Sh_2214_WlvZbb.deriv.DAOD_PHYS.e8547_s3797_r13167_p6266

mc20_13TeV.701125.Sh_2214_WlvWqq.deriv.DAOD_PHYS.e8547_s3797_r13144_p6266
mc20_13TeV.701125.Sh_2214_WlvWqq.deriv.DAOD_PHYS.e8547_s3797_r13145_p6266
mc20_13TeV.701125.Sh_2214_WlvWqq.deriv.DAOD_PHYS.e8547_s3797_r13167_p6266