mc20_13TeV.506193.MGPy8EG_Zee_FxFx_3jets_HT2bias_BFilter.deriv.DAOD_PHYS.e8382_s3681_r13145_p6266

mc20_13TeV.506194.MGPy8EG_Zee_FxFx_3jets_HT2bias_CFilterBVeto.deriv.DAOD_PHYS.e8382_s3681_r13145_p6266

mc20_13TeV.506195.MGPy8EG_Zee_FxFx_3jets_HT2bias_CVetoBVeto.deriv.DAOD_PHYS.e8382_s3681_r13145_p6266

mc20_13TeV.506196.MGPy8EG_Zmumu_FxFx_3jets_HT2bias_BFilter.deriv.DAOD_PHYS.e8382_s3681_r13145_p6266

mc20_13TeV.506197.MGPy8EG_Zmumu_FxFx_3jets_HT2bias_CFilterBVeto.deriv.DAOD_PHYS.e8382_s3681_r13145_p6266

mc20_13TeV.506198.MGPy8EG_Zmumu_FxFx_3jets_HT2bias_CVetoBVeto.deriv.DAOD_PHYS.e8382_s3681_r13145_p6266

mc20_13TeV.512198.MGPy8EG_FxFx_Ztautau_3jets_HT2bias_BFilter.deriv.DAOD_PHYS.e8382_s3681_r13145_p6266

mc20_13TeV.512199.MGPy8EG_FxFx_Ztautau_3jets_HT2bias_CFilterBVeto.deriv.DAOD_PHYS.e8382_s3681_r13145_p6266

mc20_13TeV.512200.MGPy8EG_FxFx_Ztautau_3jets_HT2bias_CVetoBVeto.deriv.DAOD_PHYS.e8382_s3681_r13145_p6266
