dataset_number/I:physics_short/C:crossSection_pb/D:kFactor/D:genFiltEff/D:relUncertUP/D:relUncertDOWN/D
603558  PhPy8EG_PDF4LHC21_HHbbyy_chhh0p0                            2.00290E-04   1.0  1.0   0.0  0.0
603559  PhPy8EG_PDF4LHC21_HHbbyy_chhh1p0                            9.02430E-05   1.0  1.0   0.0  0.0
603560  PhPy8EG_PDF4LHC21_HHbbyy_chhh5p0                            2.63484E-04   1.0  1.0   0.0  0.0
603695	PhPy8EG_PDF4LHC21_HHbbyy_chhh2p5                            3.99964E-05   1.0  1.0   0.0  0.0
603696	PhPy8EG_PDF4LHC21_HHbbyy_chhh10p0                           1.86197E-03   1.0  1.0   0.0  0.0
603697  PhPy8EG_PDF4LHC21_HHbbyy_chhhm1p0                           3.72024E-04   1.0  1.0   0.0  0.0
525376  MGPy8EG_hh_bbyy_vbf_novhh_l1cvv1cv1_5fns                    4.9550359E-06   1.0  1.0   0.0  0.0
525377  MGPy8EG_hh_bbyy_vbf_novhh_l0cvv1cv1_5fns                    1.29032E-05     1.0  1.0   0.0  0.0
525378  MGPy8EG_hh_bbyy_vbf_novhh_l2cvv1cv1_5fns                    4.45530E-06     1.0  1.0   0.0  0.0
525379  MGPy8EG_hh_bbyy_vbf_novhh_l10cvv1cv1_5fns                   2.70565E-04     1.0  1.0   0.0  0.0
525380  MGPy8EG_hh_bbyy_vbf_novhh_l1cvv0cv1_5fns                    7.62848E-05     1.0  1.0   0.0  0.0
525381  MGPy8EG_hh_bbyy_vbf_novhh_l1cvv0p5cv1_5fns                  2.71485E-05     1.0  1.0   0.0  0.0
525382  MGPy8EG_hh_bbyy_vbf_novhh_l1cvv1p5cv1_5fns                  9.55312E-06     1.0  1.0   0.0  0.0
525383  MGPy8EG_hh_bbyy_vbf_novhh_l1cvv2cv1_5fns                    4.09941E-05     1.0  1.0   0.0  0.0
525384  MGPy8EG_hh_bbyy_vbf_novhh_l1cvv3cv1_5fns                    1.84097E-04     1.0  1.0   0.0  0.0
525385  MGPy8EG_hh_bbyy_vbf_novhh_l1cvv1cv0p5_5fns                  3.07641E-05     1.0  1.0   0.0  0.0
525386  MGPy8EG_hh_bbyy_vbf_novhh_l1cvv1cv1p5_5fns                  1.85801E-04     1.0  1.0   0.0  0.0
525387  MGPy8EG_hh_bbyy_vbf_novhh_l0cvv0cv1_5fns                    1.03572E-04     1.0  1.0   0.0  0.0
525388  MGPy8EG_hh_bbyy_vbf_novhh_lm5cvv1cv0p5_5fns                 1.83580E-05     1.0  1.0   0.0  0.0
602421  PhPy8EG_PDF4LHC21_ggH_NNLOPS_gammagamma                     0.1185621       1.0  1.0   0.0  0.0 
601482  PhPy8EG_PDF4LHC21_VBFH125_gammagamma                        9.25706E-03     1.0  1.0   0.0  0.0
601484  PhPy8EG_PDF4LHC21_WpH125J_Wincl_MINLO_gammagamma            2.017803E-03    1.0  1.0   0.0  0.0
601483  PhPy8EG_PDF4LHC21_WmH125J_Wincl_MINLO_gammagamma            1.288679E-03    1.0  1.0   0.0  0.0
601523  PhPy8EG_PDF4LHC21_ZH125J_Zincl_MINLO_gammagamma             1.833933E-03    1.0  1.0   0.0  0.0
601522  PhPy8EG_PDF4LHC21_ggZH125_Zincl_gammagamma                  3.0872E-04      1.0  1.0   0.0  0.0
601481  PhPy8EG_PDF4LHC21_ttH125_tincl_gammagamma                   1.2939E-03      1.0  1.0   0.0  0.0
602422  PhPy8EG_PDF4LHC21_ttH125_tincl_gammagamma_1file             1.2939E-03      1.0  1.0   0.0  0.0
601710  PhPy8EG_PDF4LHC21_4FS_A14NNPDF_bbH_gammagamma               1.19538E-03     1.0  1.0   0.0  0.0
800904  Py8EG_A14NNPDF23LO_XHS_X170_S030_HyySbb                     1.0E-03         1.0  1.0   0.0  0.0
800913  Py8EG_A14NNPDF23LO_XHS_X245_S090_HyySbb                     1.0E-03         1.0  1.0   0.0  0.0
800915  Py8EG_A14NNPDF23LO_XHS_X205_S030_HyySbb                     1.0E-03         1.0  1.0   0.0  0.0
801367  Py8EG_A14NNPDF23LO_XHS_X750_S170_HyySbb                     1.0E-03         1.0  1.0   0.0  0.0
801370  Py8EG_A14NNPDF23LO_XHS_X750_S400_HyySbb                     1.0E-03         1.0  1.0   0.0  0.0
