#EW VVjj (EWK)
mc20_13TeV.700587.Sh_2212_lllljj.deriv.DAOD_PHYSLITE.e8433_s3681_r13144_p6266
mc20_13TeV.700588.Sh_2212_lllvjj.deriv.DAOD_PHYSLITE.e8433_s3681_r13144_p6266
mc20_13TeV.700590.Sh_2212_llvvjj_ss.deriv.DAOD_PHYSLITE.e8433_s3681_r13144_p6266
mc20_13TeV.700594.Sh_2212_llvvjj_ss_Int.deriv.DAOD_PHYSLITE.e8433_s3681_r13144_p6266
mc20_13TeV.700592.Sh_2212_lllvjj_Int.deriv.DAOD_PHYSLITE.e8433_s3681_r13144_p6266
#EW VVjj (QCD)
mc20_13TeV.700600.Sh_2212_llll.deriv.DAOD_PHYSLITE.e8433_s3681_r13144_p6266
mc20_13TeV.700601.Sh_2212_lllv.deriv.DAOD_PHYSLITE.e8433_s3681_r13144_p6266
mc20_13TeV.700603.Sh_2212_llvv_ss.deriv.DAOD_PHYSLITE.e8433_s3681_r13144_p6266
#ttbar
mc20_13TeV.410470.PhPy8EG_A14_ttbar_hdamp258p75_nonallhad.deriv.DAOD_PHYSLITE.e6337_s3681_r13144_p6266
mc20_13TeV.410471.PhPy8EG_A14_ttbar_hdamp258p75_allhad.deriv.DAOD_PHYSLITE.e6337_s3681_r13144_p6266
mc20_13TeV.410472.PhPy8EG_A14_ttbar_hdamp258p75_dil.deriv.DAOD_PHYSLITE.e6348_s3681_r13144_p6266
#single top
mc20_13TeV.410644.PowhegPythia8EvtGen_A14_singletop_schan_lept_top.deriv.DAOD_PHYSLITE.e6527_s3681_r13144_p6266
mc20_13TeV.410645.PowhegPythia8EvtGen_A14_singletop_schan_lept_antitop.deriv.DAOD_PHYSLITE.e6527_s3681_r13144_p6266
mc20_13TeV.410658.PhPy8EG_A14_tchan_BW50_lept_top.deriv.DAOD_PHYSLITE.e6671_s3681_r13144_p6266
mc20_13TeV.410659.PhPy8EG_A14_tchan_BW50_lept_antitop.deriv.DAOD_PHYSLITE.e6671_s3681_r13144_p6266
mc20_13TeV.601352.PhPy8EG_tW_dyn_DR_incl_antitop.deriv.DAOD_PHYSLITE.e8547_s4231_r13144_p6266
mc20_13TeV.601353.PhPy8EG_tW_dyn_DR_dil_antitop.deriv.DAOD_PHYSLITE.e8547_s4231_r13144_p6266
mc20_13TeV.601354.PhPy8EG_tW_dyn_DR_dil_top.deriv.DAOD_PHYSLITE.e8547_s4231_r13144_p6266
mc20_13TeV.601355.PhPy8EG_tW_dyn_DR_incl_top.deriv.DAOD_PHYSLITE.e8547_s4231_r13144_p6266
#ttV
mc20_13TeV.410155.aMcAtNloPythia8EvtGen_MEN30NLO_A14N23LO_ttW.deriv.DAOD_PHYSLITE.e5070_s3681_r13144_p6266
mc20_13TeV.504338.aMCPy8EG_NNPDF30NLO_A14N23LO_ttZqq.deriv.DAOD_PHYSLITE.e8255_s3681_r13144_p6266
mc20_13TeV.504346.aMCPy8EG_NNPDF30NLO_A14N23LO_ttZnunu.deriv.DAOD_PHYSLITE.e8255_s3681_r13144_p6266
mc20_13TeV.504330.aMCPy8EG_NNPDF30NLO_A14N23LO_ttee.deriv.DAOD_PHYSLITE.e8255_s3681_r13144_p6266
mc20_13TeV.504334.aMCPy8EG_NNPDF30NLO_A14N23LO_ttmumu.deriv.DAOD_PHYSLITE.e8255_s3681_r13144_p6266
mc20_13TeV.504342.aMCPy8EG_NNPDF30NLO_A14N23LO_tttautau.deriv.DAOD_PHYSLITE.e8255_s3797_r13144_p6266
mc20_13TeV.410081.MadGraphPythia8EvtGen_A14NNPDF23_ttbarWW.deriv.DAOD_PHYSLITE.e4111_s3681_r13144_p6266
#ttH
mc20_13TeV.346343.PhPy8EG_A14NNPDF23_NNPDF30ME_ttH125_allhad.deriv.DAOD_PHYSLITE.e7148_s3681_r13144_p6266
mc20_13TeV.346344.PhPy8EG_A14NNPDF23_NNPDF30ME_ttH125_semilep.deriv.DAOD_PHYSLITE.e7148_s3681_r13144_p6266
mc20_13TeV.346345.PhPy8EG_A14NNPDF23_NNPDF30ME_ttH125_dilep.deriv.DAOD_PHYSLITE.e7148_s3681_r13144_p6266
#VH
mc20_13TeV.345053.PowhegPythia8EvtGen_NNPDF3_AZNLO_WmH125J_MINLO_lvbb_VpT.deriv.DAOD_PHYSLITE.e5706_s3681_r13144_p6266
mc20_13TeV.345054.PowhegPythia8EvtGen_NNPDF3_AZNLO_WpH125J_MINLO_lvbb_VpT.deriv.DAOD_PHYSLITE.e5706_s3681_r13144_p6266
mc20_13TeV.345055.PowhegPythia8EvtGen_NNPDF3_AZNLO_ZH125J_MINLO_llbb_VpT.deriv.DAOD_PHYSLITE.e5706_s3681_r13144_p6266
mc20_13TeV.345057.PowhegPythia8EvtGen_NNPDF3_AZNLO_ggZH125_llbb.deriv.DAOD_PHYSLITE.e5706_s3681_r13144_p6266
mc20_13TeV.346560.PowhegPythia8EvtGen_NNPDF3_AZNLO_WmH125J_MINLO_lvWWlvqq.deriv.DAOD_PHYSLITE.e7552_s3681_r13144_p6266
mc20_13TeV.346561.PowhegPythia8EvtGen_NNPDF3_AZNLO_WpH125J_MINLO_lvWWlvqq.deriv.DAOD_PHYSLITE.e7552_s3681_r13144_p6266
#Zjets
mc20_13TeV.700320.Sh_2211_Zee_maxHTpTV2_BFilter.deriv.DAOD_PHYSLITE.e8351_s3681_r13144_p6266
mc20_13TeV.700321.Sh_2211_Zee_maxHTpTV2_CFilterBVeto.deriv.DAOD_PHYSLITE.e8351_s3681_r13144_p6266
mc20_13TeV.700322.Sh_2211_Zee_maxHTpTV2_CVetoBVeto.deriv.DAOD_PHYSLITE.e8351_s3681_r13144_p6266
mc20_13TeV.700467.Sh_2211_Zee_maxHTpTV2_m10_40_pT5_BFilter.deriv.DAOD_PHYSLITE.e8379_s3681_r13144_p6266
mc20_13TeV.700468.Sh_2211_Zee_maxHTpTV2_m10_40_pT5_CFilterBVeto.deriv.DAOD_PHYSLITE.e8379_s3681_r13144_p6266
mc20_13TeV.700469.Sh_2211_Zee_maxHTpTV2_m10_40_pT5_CVetoBVeto.deriv.DAOD_PHYSLITE.e8379_s3681_r13144_p6266
mc20_13TeV.700358.Sh_2211_Zee2jets_Min_N_TChannel.deriv.DAOD_PHYSLITE.e8357_s3681_r13144_p6266
mc20_13TeV.700323.Sh_2211_Zmumu_maxHTpTV2_BFilter.deriv.DAOD_PHYSLITE.e8351_s3681_r13144_p6266
mc20_13TeV.700324.Sh_2211_Zmumu_maxHTpTV2_CFilterBVeto.deriv.DAOD_PHYSLITE.e8351_s3681_r13144_p6266
mc20_13TeV.700325.Sh_2211_Zmumu_maxHTpTV2_CVetoBVeto.deriv.DAOD_PHYSLITE.e8351_s3681_r13144_p6266
mc20_13TeV.700470.Sh_2211_Zmumu_maxHTpTV2_m10_40_pT5_BFilter.deriv.DAOD_PHYSLITE.e8379_s3681_r13144_p6266
mc20_13TeV.700471.Sh_2211_Zmumu_maxHTpTV2_m10_40_pT5_CFilterBVeto.deriv.DAOD_PHYSLITE.e8379_s3681_r13144_p6266
mc20_13TeV.700472.Sh_2211_Zmumu_maxHTpTV2_m10_40_pT5_CVetoBVeto.deriv.DAOD_PHYSLITE.e8379_s3681_r13144_p6266
mc20_13TeV.700359.Sh_2211_Zmm2jets_Min_N_TChannel.deriv.DAOD_PHYSLITE.e8357_s3681_r13144_p6266
mc20_13TeV.700792.Sh_2214_Ztautau_maxHTpTV2_BFilter.deriv.DAOD_PHYSLITE.e8527_s3681_r13144_p6266
mc20_13TeV.700793.Sh_2214_Ztautau_maxHTpTV2_CFilterBVeto.deriv.DAOD_PHYSLITE.e8527_s3681_r13144_p6266
mc20_13TeV.700794.Sh_2214_Ztautau_maxHTpTV2_CVetoBVeto.deriv.DAOD_PHYSLITE.e8527_s3681_r13144_p6266
mc20_13TeV.700360.Sh_2211_Ztt2jets_Min_N_TChannel.deriv.DAOD_PHYSLITE.e8357_s3681_r13144_p6266
#Wjets
mc20_13TeV.700338.Sh_2211_Wenu_maxHTpTV2_BFilter.deriv.DAOD_PHYSLITE.e8351_s3681_r13144_p6266
mc20_13TeV.700339.Sh_2211_Wenu_maxHTpTV2_CFilterBVeto.deriv.DAOD_PHYSLITE.e8351_s3681_r13144_p6266
mc20_13TeV.700340.Sh_2211_Wenu_maxHTpTV2_CVetoBVeto.deriv.DAOD_PHYSLITE.e8351_s3681_r13144_p6266
mc20_13TeV.700341.Sh_2211_Wmunu_maxHTpTV2_BFilter.deriv.DAOD_PHYSLITE.e8351_s3681_r13144_p6266
mc20_13TeV.700342.Sh_2211_Wmunu_maxHTpTV2_CFilterBVeto.deriv.DAOD_PHYSLITE.e8351_s3681_r13144_p6266
mc20_13TeV.700343.Sh_2211_Wmunu_maxHTpTV2_CVetoBVeto.deriv.DAOD_PHYSLITE.e8351_s3681_r13144_p6266
mc20_13TeV.700344.Sh_2211_Wtaunu_L_maxHTpTV2_BFilter.deriv.DAOD_PHYSLITE.e8351_s3681_r13144_p6266
mc20_13TeV.700345.Sh_2211_Wtaunu_L_maxHTpTV2_CFilterBVeto.deriv.DAOD_PHYSLITE.e8351_s3681_r13144_p6266
mc20_13TeV.700346.Sh_2211_Wtaunu_L_maxHTpTV2_CVetoBVeto.deriv.DAOD_PHYSLITE.e8351_s3681_r13144_p6266
mc20_13TeV.700347.Sh_2211_Wtaunu_H_maxHTpTV2_BFilter.deriv.DAOD_PHYSLITE.e8351_s3681_r13144_p6266
mc20_13TeV.700348.Sh_2211_Wtaunu_H_maxHTpTV2_CFilterBVeto.deriv.DAOD_PHYSLITE.e8351_s3681_r13144_p6266
mc20_13TeV.700349.Sh_2211_Wtaunu_H_maxHTpTV2_CVetoBVeto.deriv.DAOD_PHYSLITE.e8351_s3681_r13144_p6266